<svg xmlns="http://www.w3.org/2000/svg" width="32.931" height="32.841" viewBox="0 0 32.931 32.841">
    <defs>
        <style>
            .cls-1{fill:none;stroke:#9007ff;stroke-miterlimit:10}
        </style>
    </defs>
    <g id="Grupo_21034" transform="matrix(0.978, 0.208, -0.208, 0.978, 47.958, -929.043)">
        <path id="Línea_1752" d="M0 0L32.225 32.04" class="cls-1" transform="matrix(0.978, -0.208, 0.208, 0.978, 146.668, 918.986)"/>
        <path id="Línea_1753" d="M32.133 0L0 32.133" class="cls-1" transform="matrix(0.978, -0.208, 0.208, 0.978, 146.759, 918.967)"/>
    </g>
</svg>
