<svg xmlns="http://www.w3.org/2000/svg" width="75.426" height="75.426" viewBox="0 0 75.426 75.426">
    <defs>
        <filter id="7hsoivu90a" width="75.426" height="75.426" x="0" y="0" filterUnits="userSpaceOnUse">
            <feOffset dy="3"/>
            <feGaussianBlur result="blur" stdDeviation="3"/>
            <feFlood flood-opacity=".161"/>
            <feComposite in2="blur" operator="in"/>
            <feComposite in="SourceGraphic"/>
        </filter>
    </defs>
    <g>
        <g filter="url(#7hsoivu90a)" transform="translate(-511.066 -1112.038) matrix(1, 0, 0, 1, 511.07, 1112.04)">
            <circle cx="28.713" cy="28.713" r="28.713" fill="#00b07f" transform="translate(9 6)"/>
        </g>
        <path fill="#fff" fill-rule="evenodd" d="M42.718-30.876a5.032 5.032 0 0 1-4.67-3.481 4.977 4.977 0 0 0 2.152-.065.46.46 0 0 0 .07-.031 5.02 5.02 0 0 1-3.259-2.3 4.878 4.878 0 0 1-.734-2.672 4.962 4.962 0 0 0 2.232.611 5.058 5.058 0 0 1-2.065-3.044 4.981 4.981 0 0 1 .539-3.636 14.353 14.353 0 0 0 10.351 5.242c-.029-.2-.06-.37-.08-.548a4.868 4.868 0 0 1 .732-3.281 4.827 4.827 0 0 1 3.4-2.271 4.9 4.9 0 0 1 4.394 1.4.255.255 0 0 0 .268.08A10.122 10.122 0 0 0 58.968-46l.068-.034h.034a5.149 5.149 0 0 1-2.15 2.734 9.721 9.721 0 0 0 2.795-.754l.019.022c-.191.254-.377.51-.577.754a9.538 9.538 0 0 1-1.824 1.732.175.175 0 0 0-.082.159 13.717 13.717 0 0 1-.094 2.227 14.683 14.683 0 0 1-1.292 4.469 14.526 14.526 0 0 1-2.71 3.959 13.43 13.43 0 0 1-6.9 3.839 14.877 14.877 0 0 1-2.795.336 14.183 14.183 0 0 1-8.03-2.157c-.031-.017-.063-.041-.118-.075a10.14 10.14 0 0 0 5.02-.693 9.837 9.837 0 0 0 2.386-1.394z" transform="translate(-511.066 -1112.038) translate(501.321 1183.24)"/>
    </g>
</svg>
